TDArchiN1/tp1-vhdl/testbench_fulladder.vcd
$date
  Tue Nov 24 15:13:59 2015
$end
$version
  GHDL v0
$end
$timescale
  1 fs
$end
$var reg 1 ! testx $end
$var reg 1 " testy $end
$var reg 1 # testcin $end
$var reg 1 $ testcout $end
$var reg 1 % testsum $end
$scope module uut $end
$var reg 1 & x $end
$var reg 1 ' y $end
$var reg 1 ( cin $end
$var reg 1 ) cout $end
$var reg 1 * sum $end
$upscope $end
$enddefinitions $end
#0
0!
0"
0#
0$
0%
0&
0'
0(
0)
0*
#1000000
1#
1%
1(
1*
#2000000
1!
1$
0%
1&
1)
0*
#3000000
0!
1"
0&
1'
#4000000
1!
0#
1&
0(
#5000000
0!
0"
0$
0&
0'
0)
#6000000
1#
1%
1(
1*
#7000000
1!
1$
0%
1&
1)
0*
#8000000
0!
1"
0&
1'
#9000000
1!
0#
1&
0(
#10000000
0!
0"
0$
0&
0'
0)
#11000000
1#
1%
1(
1*
#12000000
1!
1$
0%
1&
1)
0*
#13000000
0!
1"
0&
1'
#14000000
1!
0#
1&
0(
#15000000
0!
0"
0$
0&
0'
0)
#16000000
1#
1%
1(
1*
#17000000
1!
1$
0%
1&
1)
0*
#18000000
0!
1"
0&
1'
#19000000
1!
0#
1&
0(
#20000000
0!
0"
0$
0&
0'
0)
