TDArchiN1/tp1-vhdl/testbench_fulladder.vcd
$date
  Tue Nov 24 15:13:11 2015
$end
$version
  GHDL v0
$end
$timescale
  1 fs
$end
$var reg 1 ! testx $end
$var reg 1 " testy $end
$var reg 1 # testcin $end
$var reg 1 $ testcout $end
$var reg 1 % testsum $end
$scope module uut $end
$var reg 1 & x $end
$var reg 1 ' y $end
$var reg 1 ( cin $end
$var reg 1 ) cout $end
$var reg 1 * sum $end
$upscope $end
$enddefinitions $end
#0
0!
0"
0#
0$
0%
0&
0'
0(
0)
0*
#1000000
1#
1%
1(
1*
#2000000
0#
0%
0(
0*
#3000000
1#
1%
1(
1*
#4000000
0#
0%
0(
0*
#5000000
1#
1%
1(
1*
#6000000
0#
0%
0(
0*
#7000000
1#
1%
1(
1*
#8000000
0#
0%
0(
0*
#9000000
1#
1%
1(
1*
#10000000
0#
0%
0(
0*
#11000000
1#
1%
1(
1*
#12000000
0#
0%
0(
0*
#13000000
1#
1%
1(
1*
#14000000
0#
0%
0(
0*
#15000000
1#
1%
1(
1*
#16000000
0#
0%
0(
0*
#17000000
1#
1%
1(
1*
#18000000
0#
0%
0(
0*
#19000000
1#
1%
1(
1*
